Patient Length of Stay - Solution
…
## # A tibble: 7 x 2
##   num_procs     n
##       <dbl> <int>
## 1         0  4561
## 2         1  2064
## 3         2  1223
## 4         3   969
## 5         4   391
## 6         5   274
## 7         6   515

data.all %>% dplyr::count(num_meds)

## # A tibble: 64 x 2
##    num_meds     n
##       <dbl> <int>
##  1        1    24
##  2        2    40
##  3        3   102
##  4        4   143
##  5        5   171
##  6        6   262
##  7        7   342
##  8        8   439
##  9        9   461
## 10       10   517
## # ... with 54 more rows
…
##   <fct>      <dbl>  <dbl> <int>
## 1 NO          4.23      3  5370
## 2 >30         4.57      4  3525
## 3 <30         4.77      4  1102
## # A tibble: 7 x 4
##   num_procs  mean median     n
##       <dbl> <dbl>  <dbl> <int>
## 1         0  3.78      3  4561
## 2         1  4.56      4  2064
## 3         2  5.00      4  1223
## 4         3  5.04      4   969
## 5         4  5.63      5   391
## 6         5  5.25      4   274
## 7         6  5.43      5   515
## # A tibble: 64 x 4
##    num_meds  mean median     n
##       <dbl> <dbl>  <dbl> <int>
##  1        1  2.25    1.5    24
##  2        2  1.8     1.5    40
##  3        3  1.95    2     102
##  4        4  2.33    2     143
##  5        5  2.62    2     171
##  6        6  2.48    2     262
##  7        7  2.75    2     342
##  8        8  2.93    2     439
##  9        9  3.09    2     461
## 10       10  3.52    3     517
## # ... with 54 more rows
…
